{
  "project_info": {
    "project_number": "858871438164",
    "firebase_url": "https://myapp-d34a4.firebaseio.com",
    "project_id": "myapp-d34a4",
    "storage_bucket": "myapp-d34a4.appspot.com"
  },
  "client": [
    {
      "client_info": {
        "mobilesdk_app_id": "1:858871438164:android:b031e33a992b775c",
        "android_client_info": {
          "package_name": "io.ionic.firedemo"
        }
      },
      "oauth_client": [
        {
          "client_id": "858871438164-ut3is6v8trhas2p995v280vqqrsnb0fl.apps.googleusercontent.com",
          "client_type": 3
        }
      ],
      "api_key": [
        {
          "current_key": "AIzaSyDaQ5moSsqgyw5V77qQecl6LAnePK27mGI"
        }
      ],
      "services": {
        "analytics_service": {
          "status": 1
        },
        "appinvite_service": {
          "status": 1,
          "other_platform_oauth_client": []
        },
        "ads_service": {
          "status": 2
        }
      }
    },
    {
      "client_info": {
        "mobilesdk_app_id": "1:858871438164:android:764d2cb7da3280eb",
        "android_client_info": {
          "package_name": "io.ionic.starter"
        }
      },
      "oauth_client": [
        {
          "client_id": "858871438164-ut3is6v8trhas2p995v280vqqrsnb0fl.apps.googleusercontent.com",
          "client_type": 3
        }
      ],
      "api_key": [
        {
          "current_key": "AIzaSyDaQ5moSsqgyw5V77qQecl6LAnePK27mGI"
        }
      ],
      "services": {
        "analytics_service": {
          "status": 1
        },
        "appinvite_service": {
          "status": 1,
          "other_platform_oauth_client": []
        },
        "ads_service": {
          "status": 2
        }
      }
    }
  ],
  "configuration_version": "1"
}